<?xml version="1.0" encoding="utf-8"?>
<!-- Generator: Adobe Illustrator 24.2.3, SVG Export Plug-In . SVG Version: 6.00 Build 0)  -->
<svg version="1.1" id="Layer_1" xmlns="http://www.w3.org/2000/svg" xmlns:xlink="http://www.w3.org/1999/xlink" x="0px" y="0px"
	 viewBox="0 0 33 15" style="enable-background:new 0 0 33 15;" xml:space="preserve">
<style type="text/css">
	.st0{enable-background:new    ;}
	.st1{fill:#5D2568;}
</style>
<g class="st0">
	<path class="st1" d="M0.9,3.4h0.8v5.1c0,2,0.8,3.1,2.4,3c1.7,0,2.5-1,2.4-3V3.4h0.8v5.4c0,2.3-1.1,3.5-3.3,3.5
		C2,12.2,0.9,11,0.9,8.8V3.4z"/>
	<path class="st1" d="M10.5,9.4c0.1,0.8,0.3,1.3,0.8,1.6c0.4,0.3,1,0.5,1.6,0.5c0.8,0,1.3-0.2,1.6-0.6c0.3-0.3,0.5-0.8,0.5-1.2
		c0-0.3-0.1-0.6-0.2-0.8c-0.1-0.2-0.3-0.4-0.6-0.5c-0.2-0.1-0.5-0.2-0.8-0.3c-0.3-0.1-0.6-0.2-1-0.2c-0.3-0.1-0.6-0.2-0.9-0.3
		c-0.3-0.1-0.6-0.2-0.8-0.4c-0.2-0.2-0.4-0.4-0.6-0.7C10,6.2,10,5.9,10,5.5c0-0.6,0.2-1.2,0.7-1.6c0.5-0.4,1.2-0.7,2.1-0.7
		c0.9,0,1.6,0.3,2.1,0.8c0.5,0.5,0.7,1.1,0.7,1.8h-0.7c0-0.7-0.2-1.1-0.6-1.5c-0.4-0.3-0.9-0.4-1.4-0.4c-0.8,0-1.4,0.2-1.7,0.6
		c-0.3,0.4-0.5,0.8-0.4,1.3c0,0.3,0.2,0.5,0.4,0.7c0.2,0.2,0.4,0.3,0.6,0.4c0.3,0.1,0.5,0.2,0.8,0.3c0.3,0.1,0.6,0.1,0.9,0.2
		c0.3,0.1,0.6,0.2,0.9,0.3c0.3,0.1,0.5,0.3,0.8,0.4c0.2,0.2,0.4,0.4,0.5,0.7c0.1,0.3,0.2,0.6,0.2,1.1c0,1.7-1.1,2.5-3.1,2.5
		c-0.9,0-1.6-0.2-2.2-0.7c-0.6-0.5-0.9-1.2-0.9-2.1H10.5z"/>
	<path class="st1" d="M18.1,12V3.4H21c0.5,0,0.9,0,1.4,0.1c0.4,0.1,0.8,0.3,1.2,0.6c0.6,0.4,0.9,1,1.1,1.7c0.2,0.7,0.3,1.3,0.3,2
		c0,0.6-0.1,1.2-0.2,1.7c-0.2,0.6-0.4,1.1-0.8,1.5c-0.4,0.4-0.8,0.7-1.4,0.8S21.6,12,21,12H18.1z M18.9,11.3h1.9c0.4,0,0.7,0,1-0.1
		c0.3-0.1,0.6-0.2,0.9-0.3c0.5-0.3,0.9-0.8,1.1-1.4c0.2-0.6,0.3-1.2,0.3-1.8c0-0.7-0.1-1.3-0.3-1.9c-0.2-0.6-0.6-1.1-1.2-1.4
		c-0.2-0.1-0.5-0.2-0.9-0.3c-0.3,0-0.7-0.1-1-0.1h-1.9V11.3z"/>
</g>
</svg>
