<svg xmlns="http://www.w3.org/2000/svg" width="21.868" height="17.532" viewBox="0 0 21.868 17.532">
  <path id="Path_379" data-name="Path 379" d="M179.58,196.849l-1.367,1.319-4.335-4.288-2.733,2.733,7.068,7.068,14.8-14.8-2.735-2.733Z" transform="translate(-171.145 -186.149)" fill="#1f8a60"/>
</svg>
