<svg xmlns="http://www.w3.org/2000/svg" xmlns:xlink="http://www.w3.org/1999/xlink" width="33" height="33" viewBox="0 0 33 33">
  <defs>
    <filter id="Ellipse_19" x="0" y="0" width="33" height="33" filterUnits="userSpaceOnUse">
      <feOffset dy="1" input="SourceAlpha"/>
      <feGaussianBlur stdDeviation="1.5" result="blur"/>
      <feFlood flood-opacity="0.161"/>
      <feComposite operator="in" in2="blur"/>
      <feComposite in="SourceGraphic"/>
    </filter>
  </defs>
  <g id="Group_852" data-name="Group 852" transform="translate(4.5 3.644)">
    <g transform="matrix(1, 0, 0, 1, -4.5, -3.64)" filter="url(#Ellipse_19)">
      <g id="Ellipse_19-2" data-name="Ellipse 19" transform="translate(4.5 3.5)" fill="#fff" stroke="#cfb381" stroke-width="1">
        <circle cx="12" cy="12" r="12" stroke="none"/>
        <circle cx="12" cy="12" r="11.5" fill="none"/>
      </g>
    </g>
    <g id="Group_447" data-name="Group 447" transform="translate(9.225 6.927)">
      <path id="Path_428" data-name="Path 428" d="M-9101.564,7539.561l7.469-5.276-7.469-5.273Z" transform="translate(9101.564 -7529.011)" fill="#5d2568"/>
    </g>
  </g>
</svg>
