<svg xmlns="http://www.w3.org/2000/svg" xmlns:xlink="http://www.w3.org/1999/xlink" width="344" height="160" viewBox="0 0 344 160">
  <defs>
    <filter id="Ellipse_28" x="-0.5" y="-2.5" width="43" height="43" filterUnits="userSpaceOnUse">
      <feOffset dy="1" input="SourceAlpha"/>
      <feGaussianBlur stdDeviation="1.5" result="blur"/>
      <feFlood flood-opacity="0.161"/>
      <feComposite operator="in" in2="blur"/>
      <feComposite in="SourceGraphic"/>
    </filter>
    <clipPath id="clip-HU-building-illustration">
      <rect width="344" height="160"/>
    </clipPath>
  </defs>
  <g id="HU-building-illustration" clip-path="url(#clip-HU-building-illustration)">
    <g transform="matrix(1, 0, 0, 1, 0, 0)" filter="url(#Ellipse_28)">
      <g id="Ellipse_28-2" data-name="Ellipse 28" transform="translate(4 1)" fill="#fff" stroke="#cfb381" stroke-width="1">
        <circle cx="17" cy="17" r="17" stroke="none"/>
        <circle cx="17" cy="17" r="16.5" fill="none"/>
      </g>
    </g>
    <g id="HU-building-illustration-2" data-name="HU-building-illustration" transform="translate(-16 -568.5)">
      <path id="Path_430" data-name="Path 430" d="M357.25,1484.273h-.418l-272.959-.681,1.33-22.309-19.211.094-4.879-1,.029-.417,2.957-41.4.837.183.119-1.412,1.1.271.151-1.551,1.022.344.062-1.419.776.122.321-4.4c.042-3.977.892-6.742,2.523-8.2a37.33,37.33,0,0,1,4.322-3.355,32.072,32.072,0,0,1,4.712-2.427l.119-.046,2.327.866.016,1.509a155.447,155.447,0,0,1,22.447-5.356l-21.822-1.653,1.569-20.814.221-.1a147.161,147.161,0,0,1,40.9-10.188c17.574-1.868,38.14-2.442,52.291-2.595,14.755-.159,25.2.1,25.294.1l163.288,1.486.042.4,1.824,18.547,10.4-.112.049.4,5.523,50.328-.364.071-25.207,4.994-5.864-.054,4.153,49.769ZM84.7,1482.688l271.714.675-4.156-49.778,6.637.07,24.789-4.914-5.388-49.061-10.406.112-.042-.407-1.823-18.555-162.62-1.48c-.106,0-10.532-.255-25.276-.1-14.141.153-34.677.727-52.233,2.589a147.865,147.865,0,0,0-40.472,10.04L83.967,1391.2l24.88,1.885.026.9a161.538,161.538,0,0,0-26.633,6.1l-.483.158-.022-2.032-1.557-.577a31.625,31.625,0,0,0-4.478,2.317,36.223,36.223,0,0,0-4.221,3.276c-1.44,1.282-2.183,3.809-2.228,7.519l-.392,5.376-.745-.115-.064,1.573-1.084-.366-.145,1.482-1.1-.272-.118,1.391-.82-.18-2.858,39.994,4.116.847,19.976-.107-1.328,22.32Z" transform="translate(-33.748 -772.795)" fill="none"/>
      <path id="Path_431" data-name="Path 431" d="M816.365,1428.409l3.357,46.746h14.637l-.238-1.077-13.175-.129-3.69-47.307-.891,1.765Z" transform="translate(-537.32 -818.368)" fill="none" stroke="#5f2567" stroke-miterlimit="10" stroke-width="1"/>
      <path id="Path_432" data-name="Path 432" d="M770.536,1429.731l3.539,46.64,15.272-.453-.242-1.079-14,.434-3.688-47.307-.881,1.764Z" transform="translate(-506.763 -819.25)" fill="none" stroke="#5f2567" stroke-miterlimit="10" stroke-width="1"/>
      <path id="Path_433" data-name="Path 433" d="M724.744,1428.966l3.462,47.332,15.337-.437-.122-1.076-14.09.688-3.7-48.271-.89,1.764Z" transform="translate(-476.231 -818.739)" fill="none" stroke="#5f2567" stroke-miterlimit="10" stroke-width="1"/>
      <path id="Path_434" data-name="Path 434" d="M682.61,1427.637l2.791,48.108,14.657-.058-.077-1.1-13.443.362-3.006-48.621-.921,1.312Z" transform="translate(-448.138 -818.154)" fill="none" stroke="#5f2567" stroke-miterlimit="10" stroke-width="1"/>
      <path id="Path_435" data-name="Path 435" d="M638.376,1428.114l2.789,48.108,14.658-.058-.075-1.1-13.445.362-3.009-48.621-.918,1.312Z" transform="translate(-418.644 -818.473)" fill="none" stroke="#5f2567" stroke-miterlimit="10" stroke-width="1"/>
      <path id="Path_436" data-name="Path 436" d="M596.691,1430.094l2.084,48.154,14.556-.635-.054-1.105-13.348.967-2.3-48.673-.94,1.293Z" transform="translate(-390.85 -819.806)" fill="none" stroke="#5f2567" stroke-miterlimit="10" stroke-width="1"/>
      <path id="Path_437" data-name="Path 437" d="M553.954,1430.169l2.089,48.156,14.228-.045-.063-1.1-13.017.375-2.292-48.675-.944,1.293Z" transform="translate(-362.355 -819.856)" fill="none" stroke="#5f2567" stroke-miterlimit="10" stroke-width="1"/>
      <path id="Path_438" data-name="Path 438" d="M515.378,1425.731l.481,50.568,14.476-.03-.024-1.107-13.276.411-.647-49.817-1.009-.026Z" transform="translate(-336.634 -817.759)" fill="none" stroke="#5f2567" stroke-miterlimit="10" stroke-width="1"/>
      <path id="Path_439" data-name="Path 439" d="M77.775,1562.645l2.59-41.054-2.608-.167-2.777,41.507c-.383.04-.781.079-1.152.127l2.612-40.215-1.659.018-3.168,40.519c-.279.044-.571.085-.842.129l2.705-39.443-1.069.011-2.926,39.678c-.312.057-.631.116-.93.174l2.666-38.863-.433,0-2.873,39c-.317.069-.615.148-.919.222l2.637-37.258-.434,0-2.848,37.41c-.247.067-.509.131-.75.193l2.616-36.877-.435,0-2.831,37.078c-.432.128-.874.252-1.279.389l-.034,1.393q5.662-1.72,24.36-2.368l.129-2.111h0l2.437-43.209-3.881-.134-2.586,43.472c-.513.018-1.066.024-1.571.052l2.853-41.851-3.7-.139-2.824,42.176" transform="translate(-35.43 -879.819)" fill="none" stroke="#5f2567" stroke-miterlimit="10" stroke-width="1" fill-rule="evenodd"/>
      <path id="Path_440" data-name="Path 440" d="M241.461,1560.953l10.5,4.6.524-13.3-2.221-18.651-5.744-.593.455-13.426,5.108,8.241,2.96,23.994-.4,15.535-12.657-4.7,1.47-1.7Z" transform="translate(-153.016 -880.338)" fill="none" stroke="#5f2567" stroke-miterlimit="10" stroke-width="1"/>
      <path id="Path_441" data-name="Path 441" d="M163.27,1681.424l.04-2.486,17.436-.019,1.1-22,9.067-.31-.5,22.3h1.907l-.026,2.9-29.026-.381Z" transform="translate(-101.862 -971.696)" fill="none" stroke="#5f2567" stroke-miterlimit="10" stroke-width="1"/>
      <path id="Path_442" data-name="Path 442" d="M374.183,1556.539v-18.5h-4.426v19.316H362.8l-.444-19.316h-4.174l.473,19.316H347.518v-22.847l15.283-28.759v-23.773l-4.824-.225,9.265.225.281,28.862h5.334l9.6.225.178,45.408-8.454.071Z" transform="translate(-224.711 -850.824)" fill="none" stroke="#5f2567" stroke-miterlimit="10" stroke-width="1"/>
      <path id="Path_444" data-name="Path 444" d="M691,1595.783c-.045-1.409,2.864-2.323,2.875-1.333l1.7,36.9-3.248-.095L691,1595.783Z" transform="translate(-453.733 -929.977)" fill="none" stroke="#5f2567" stroke-miterlimit="10" stroke-width="1"/>
      <path id="Path_445" data-name="Path 445" d="M695.458,1631.191l-3.521-.1-.01-.151-1.325-35.471a1.337,1.337,0,0,1,.33-.907,2.984,2.984,0,0,1,2.054-1.007c.675-.007.756.4.758.574l1.714,37.063Zm-3.265-.414,2.973.084-1.692-36.722c0-.24-.337-.265-.486-.263a2.744,2.744,0,0,0-1.864.906,1.038,1.038,0,0,0-.256.673l1.324,35.322Z" transform="translate(-453.466 -929.656)" fill="none" stroke="#5f2567" stroke-miterlimit="10" stroke-width="1"/>
      <path id="Path_446" data-name="Path 446" d="M596.607,1596.8c-.04-1.41,2.862-2.323,2.873-1.333l1.723,38.51-3.244-.088-1.351-37.089Z" transform="translate(-390.794 -930.656)" fill="none" stroke="#5f2567" stroke-miterlimit="10" stroke-width="1"/>
      <path id="Path_447" data-name="Path 447" d="M601.077,1633.819l-.142,0-3.376-.091,0-.152-1.352-37.087a1.379,1.379,0,0,1,.332-.909,3.013,3.013,0,0,1,2.056-1.005c.677-.007.758.4.759.574l1.726,38.673Zm-3.26-.407,2.972.08-1.713-38.336c0-.241-.337-.265-.483-.264a2.742,2.742,0,0,0-1.863.906,1.013,1.013,0,0,0-.261.673l1.346,36.94Z" transform="translate(-390.524 -930.335)" fill="none" stroke="#5f2567" stroke-miterlimit="10" stroke-width="1"/>
      <path id="Path_448" data-name="Path 448" d="M569.187,1604.765c-.047-1.405,2.867-2.321,2.878-1.328l1.6,34.905-3.242-.089-1.233-33.489Z" transform="translate(-372.511 -935.968)" fill="none" stroke="#5f2567" stroke-miterlimit="10" stroke-width="1"/>
      <path id="Path_449" data-name="Path 449" d="M573.538,1638.187l-.148-.006-3.372-.092,0-.15-1.233-33.487a1.352,1.352,0,0,1,.327-.906,3.021,3.021,0,0,1,2.061-1c.671-.007.754.4.756.575l1.611,35.07Zm-3.26-.41,2.975.08-1.6-34.73c0-.245-.337-.267-.481-.266a2.754,2.754,0,0,0-1.866.907,1.019,1.019,0,0,0-.257.674l1.226,33.336Z" transform="translate(-372.242 -935.65)" fill="none" stroke="#5f2567" stroke-miterlimit="10" stroke-width="1"/>
      <path id="Path_450" data-name="Path 450" d="M654.048,1603.569c-.038-1.409,2.862-2.321,2.872-1.328l1.573,33.113-3.24-.088-1.2-31.7Z" transform="translate(-429.093 -935.17)" fill="none" stroke="#5f2567" stroke-miterlimit="10" stroke-width="1"/>
      <path id="Path_451" data-name="Path 451" d="M658.372,1635.2l-.145,0-3.372-.093,0-.152-1.206-31.695a1.365,1.365,0,0,1,.333-.911,3.01,3.01,0,0,1,2.054-1c.676-.007.755.4.757.573l1.581,33.281Zm-3.26-.411,2.977.081-1.567-32.941c0-.247-.337-.268-.485-.267a2.764,2.764,0,0,0-1.863.906,1.017,1.017,0,0,0-.258.675l1.2,31.545Z" transform="translate(-428.825 -934.855)" fill="none" stroke="#5f2567" stroke-miterlimit="10" stroke-width="1"/>
      <path id="Path_452" data-name="Path 452" d="M885.85,1578.679,889.7,1624l15.048-.644-3.982-45.324-14.913.647Z" transform="translate(-583.65 -919.307)" fill="none" stroke="#5f2567" stroke-miterlimit="10" stroke-width="1"/>
      <path id="Path_453" data-name="Path 453" d="M889.285,1623.842l-3.873-45.64,15.176-.654.017.147,4,45.492-15.32.655Zm-3.579-45.333,3.816,45,14.784-.631-3.963-45-14.637.632Z" transform="translate(-583.358 -918.984)" fill="none" stroke="#5f2567" stroke-miterlimit="10" stroke-width="1"/>
      <path id="Path_454" data-name="Path 454" d="M763.673,1583.129l-48.056,9.161-10.969.72,1.252,29.45,61.191,3.2-3.418-42.53Zm-49.479,25.719-.617-12.408,1.194-.248.751,12.791-1.328-.135Zm14.335,3.647-.318-4.142-6.576.38-.952-13.4,8.717-2.017,1.146,19.323-2.018-.142Z" transform="translate(-462.832 -922.705)" fill="none" stroke="#5f2567" stroke-miterlimit="10" stroke-width="1" fill-rule="evenodd"/>
      <path id="Path_455" data-name="Path 455" d="M766.958,1625.455l-.151-.007-61.317-3.2,0-.148-1.263-29.6.129-.012,10.97-.718,48.188-9.189.017.172,3.428,42.708Zm-61.213-3.516,60.916,3.183-3.389-42.176-47.912,9.132-10.857.717,1.242,29.145Zm24.66-9.5-2.281-.16-.01-.138-.3-3.988-6.586.38-.005-.157-.961-13.543.122-.028,8.865-2.053.007.181,1.153,19.506Zm-2.03-.464,1.744.122-1.125-18.96-8.449,1.952.927,13.108,6.579-.379.015.153.309,4.005Zm-12.988-3.19-1.607-.157,0-.141-.625-12.55,1.46-.3.012.179.762,12.972Zm-1.347-.453,1.06.107-.732-12.429-.932.192.6,12.13Z" transform="translate(-462.55 -922.336)" fill="none" stroke="#5f2567" stroke-miterlimit="10" stroke-width="1"/>
      <path id="Path_456" data-name="Path 456" d="M636.233,1576.828l-44.282,8.672-9.954.589-.253-4.031a1.213,1.213,0,0,0-.672-1.011,1.979,1.979,0,0,0-.74-.154,4.856,4.856,0,0,0-1.6.275,4.922,4.922,0,0,0-1.613.872,2.494,2.494,0,0,0-.913,1.9l.1,3.439-6.909-.29-.071-2.2a1.178,1.178,0,0,0-.615-1.028,1.855,1.855,0,0,0-.7-.193,4.646,4.646,0,0,0-1.569.17,4.377,4.377,0,0,0-1.6.785,2.408,2.408,0,0,0-.917,1.906l.007.672-13.393-.311-.187-4.065a1.488,1.488,0,0,0-1.272-1.444,3.8,3.8,0,0,0-1.684.1,4.334,4.334,0,0,0-1.659.833,2.453,2.453,0,0,0-.937,1.932l.028,2.62-3.509.256-.152-2.4a1.058,1.058,0,0,0-.8-.944,2.4,2.4,0,0,0-.665-.046,7.258,7.258,0,0,0-1.548.281,6.114,6.114,0,0,0-1.573.686,1.965,1.965,0,0,0-.983,1.645l.009.879-14.578-1.5-.218-7.058,115.424-1.846Z" transform="translate(-340.255 -918.504)" fill="none" stroke="#5f2567" stroke-miterlimit="10" stroke-width="1"/>
      <path id="Path_457" data-name="Path 457" d="M252.111,1678.745c-.039.728,3.174.4,3.211-.381l.6-17.379c-.032-.76-3.028-.512-3.032.561l-.78,17.2Z" transform="translate(-161.098 -974.323)" fill="none" stroke="#5f2567" stroke-miterlimit="10" stroke-width="1"/>
      <path id="Path_458" data-name="Path 458" d="M258.359,1620.037l-2.867-1.4.425-13.247c.079-.878,2.872-.669,2.856-.11l-.414,14.76Z" transform="translate(-163.352 -937.149)" fill="none" stroke="#5f2567" stroke-miterlimit="10" stroke-width="1"/>
      <path id="Path_459" data-name="Path 459" d="M250.025,1559.477l1.892-41.047c.02-.49-1.468-2.762-1.636-.85l-1.479,41.381,1.222.516Z" transform="translate(-158.892 -878.498)" fill="none" stroke="#5f2567" stroke-miterlimit="10" stroke-width="1"/>
      <path id="Path_460" data-name="Path 460" d="M86.124,1481.49l2.222.173.114-1.458,2.847.2.252-1.457,3.738.311.049-1.453,3.771.155,1.224-.564.024-1.139.427.035.339.388,4.26-.477-.049-1.457.562.073,1.434,1.127-3.3,48.228,34.984-1.493,1.988-47.6,6.7,11.593.532,6.356,39.246,1.161.548-23.483-42.23-1.88-4.413-10.472-12.627,1.206.862.068.02.955s-9.054,1.154-17.52,3c-7.141,1.561-14.421,4.039-14.421,4.039l-.025-2.328-1.134-.423a29.193,29.193,0,0,0-8.449,5.469,1.38,1.38,0,0,0-.153.157c-1.614,1.744-1.891,4.531-1.909,7l-.382,5.26.421.059.049-1.335Z" transform="translate(-50.111 -839.512)" fill="none" stroke="#5f2567" stroke-miterlimit="10" stroke-width="1"/>
      <path id="Path_461" data-name="Path 461" d="M424.581,1383.014l-10.419.113-1.861-18.971-162.247-1.479s-44.063-1.051-77.461,2.5a145.792,145.792,0,0,0-40.121,9.892l-1.383,18.491,1.509.112c27.683-9.2,69.312-10.33,90.027-10.263l.564,52.283,14.871.275,1.049,45.556,20.939-1.1L259,1383.7l116.207.336-.4-1.911,8.111.353,3.8,49.405,40.41-.191,2.726-.54-5.279-48.135Z" transform="translate(-80.405 -775.619)" fill="none" stroke="#5f2567" stroke-miterlimit="10" stroke-width="1"/>
      <path id="Path_462" data-name="Path 462" d="M533.132,1721.252l-.525-4.561-83-1.352-123.048,2.879,0,2.773,206.579.26Z" transform="translate(-210.733 -1010.858)" fill="none" stroke="#5f2567" stroke-miterlimit="10" stroke-width="1"/>
      <path id="Path_463" data-name="Path 463" d="M138.891,1660.824l-1,18.486,25.092-.176.893-20.171-24.985,1.861Z" transform="translate(-84.941 -973.268)" fill="none" stroke="#5f2567" stroke-miterlimit="10" stroke-width="1"/>
      <path id="Path_464" data-name="Path 464" d="M162.827,1678.948H162.7l-25.236.176,1.016-18.8.116-.008,25.14-1.875-.011.179-.9,20.324Zm-25.078-.146,24.822-.172.878-19.845-24.713,1.847-.987,18.17Z" transform="translate(-84.655 -972.923)" fill="none" stroke="#5f2567" stroke-miterlimit="10" stroke-width="1"/>
      <path id="Path_465" data-name="Path 465" d="M165.923,1541.012a16.707,16.707,0,0,0-3.6,2.844l1.2.158s.412-.248.5.024a.456.456,0,0,1-.2.464l-.867-.044.418.322-.669.74-.065,1.237c-.015.233.541.6.541.6a4.72,4.72,0,0,0,1.156.4c.366.015,1.653-.092,2.453-.049s.693.906.693.906a2.145,2.145,0,0,0-1.022-.485,8.419,8.419,0,0,0-2.44-.088,2.036,2.036,0,0,1-1.129-.258,1.346,1.346,0,0,0-.065,1.947,2.457,2.457,0,0,0,2.572.228,2.072,2.072,0,0,1,1.674.114,5.746,5.746,0,0,1-2.59.74,2.261,2.261,0,0,1-2.559-1.162,2.727,2.727,0,0,1,.774-2.079,6.5,6.5,0,0,0-.507-.629c-.128-.106-.125-.878-.18-1.084s-.385-.957-.385-.957a1.094,1.094,0,0,1,.127-1.37,25.03,25.03,0,0,1,3.766-2.767,1.65,1.65,0,0,1,.93-1.837l1.764-.983q1.606-3.923,5.448-3.557-4.195.662-4.623,3.8-3.574,1.446-3.127,2.833" transform="translate(-100.653 -890.182)" fill="#5f2567" fill-rule="evenodd"/>
      <path id="Path_466" data-name="Path 466" d="M180.181,1554.61l-1.658-.42a3.978,3.978,0,0,1-.739,1.409,2.473,2.473,0,0,1,2.178-.562Z" transform="translate(-111.54 -903.41)" fill="#5f2567" fill-rule="evenodd"/>
      <path id="Path_467" data-name="Path 467" d="M181.156,1561.569a11.791,11.791,0,0,0-3.65,9.925,18.3,18.3,0,0,1,2.875-7.917c.292-.486,3.935-4.9,3.935-4.9l-2.248,2a10.664,10.664,0,0,1,2.323-4.113c-.159-2.417-.8-3.918-1.926-4.494a7.421,7.421,0,0,1,1.312,4.738,7.511,7.511,0,0,0-2.621,4.763" transform="translate(-111.318 -901.995)" fill="#5f2567" fill-rule="evenodd"/>
      <path id="Path_468" data-name="Path 468" d="M187.852,1538.373l1.413-.6q1.589-2.42,5.779-2.127-5.3-.927-7.192,2.728" transform="translate(-118.252 -890.92)" fill="#5f2567" fill-rule="evenodd"/>
      <path id="Path_469" data-name="Path 469" d="M202.885,1537.783a11.207,11.207,0,0,1,7.856,5.391q-2.159-5.673-7.856-5.391" transform="translate(-128.276 -892.462)" fill="#5f2567" fill-rule="evenodd"/>
      <path id="Path_470" data-name="Path 470" d="M202.667,1545.422q1.042-3.727-.965-4.24c.959.833,1.067,1.994.335,3.473Z" transform="translate(-127.487 -894.737)" fill="#5f2567" fill-rule="evenodd"/>
      <path id="Path_471" data-name="Path 471" d="M196.243,1544.835l.022-1.037-.957.386c.118-1.551.586-2.27,1.414-2.143q1.124.678.446,2.475c-.277.437-.582.543-.924.319" transform="translate(-123.223 -895.3)" fill="#5f2567" fill-rule="evenodd"/>
      <path id="Path_472" data-name="Path 472" d="M211.269,1544.484a6.169,6.169,0,0,1,.444,1.257s1.342-.071,2.738,1.974a4.5,4.5,0,0,0-3.181-3.232" transform="translate(-133.866 -896.938)" fill="#5f2567" fill-rule="evenodd"/>
      <path id="Path_473" data-name="Path 473" d="M214.035,1551.276l-.39-1.393a3.582,3.582,0,0,1,2.117,2.19c-.83-.99-1.61-.88-1.727-.8" transform="translate(-135.45 -900.538)" fill="#5f2567" fill-rule="evenodd"/>
      <path id="Path_474" data-name="Path 474" d="M207.02,1545.711a8.187,8.187,0,0,1,1.254,4.9,10.133,10.133,0,0,0,.956,5.607c-.558-2.285-.051-4.183.076-5.766a6.648,6.648,0,0,0-2.286-4.743" transform="translate(-131.033 -897.756)" fill="#5f2567" fill-rule="evenodd"/>
      <path id="Path_475" data-name="Path 475" d="M215.9,1557.1a8.052,8.052,0,0,1-.077,3.886,6.665,6.665,0,0,0,.383,4.732c.512,1.17,1.395,1.934,1.889.645a4.146,4.146,0,0,0-.254-3.4,2.624,2.624,0,0,1-1.027,3.253c-.407-.776-.264-1.61-.146-3.082s.616-3.868-.768-6.031" transform="translate(-136.722 -905.348)" fill="#5f2567" fill-rule="evenodd"/>
      <path id="Path_476" data-name="Path 476" d="M204.966,1582.763c.033-.267.069-.6.081-1-2.047-2.663-.915-6.958-.915-6.958a9.392,9.392,0,0,0,.39,7.347,6.515,6.515,0,0,0,.444.611" transform="translate(-128.725 -917.156)" fill="#5f2567" fill-rule="evenodd"/>
      <path id="Path_477" data-name="Path 477" d="M215.058,1562.274c-1.731-2.028-1.426-3.28-1.426-3.28-.638,2.46.481,3.441,1.234,4.558s1.664,2.339,1.374,4c-1.3,5.1-4.128,5.63-5.8,4.562a3.818,3.818,0,0,1-.174.913c1.112.814,2.75,1.08,4.852-1.159,3.175-3.388,1.667-7.575-.063-9.594" transform="translate(-133.2 -906.613)" fill="#5f2567" fill-rule="evenodd"/>
      <path id="Path_478" data-name="Path 478" d="M211.446,1581.381s-.425.317-.288,1.666.075,3.072-1.085,2.75c0,0,.4,1.254,1.063.793a2.236,2.236,0,0,0,.5-2.443,6.981,6.981,0,0,1-.186-2.766" transform="translate(-133.068 -921.54)" fill="#5f2567" fill-rule="evenodd"/>
      <path id="Path_479" data-name="Path 479" d="M206.847,1588.7s-.387.435-.476,2.216-.253,2.363-1.062,1.763c0,0,.082,1.476.738,1.218s1.073-1.644.963-2.546a5.762,5.762,0,0,1-.163-2.651" transform="translate(-129.892 -926.417)" fill="#5f2567" fill-rule="evenodd"/>
      <path id="Path_480" data-name="Path 480" d="M198.289,1595.126a10.965,10.965,0,0,0-.391,2.052c-.087,1.072-.684,2.185-1.6,2.35s-1.143-.633-.975-1.163c0,0-.7,1.985,1.009,2.245,1.307.191,2.152-1.439,2.049-2.9a15.825,15.825,0,0,1-.088-2.581" transform="translate(-123.135 -930.705)" fill="#5f2567" fill-rule="evenodd"/>
      <path id="Path_481" data-name="Path 481" d="M189.251,1577.751s.418,6.272-2.574,8.7c-1.408,1.145-3.2.693-2.391-2.651,0,0-1.449,4.3,1.12,4.232s4.581-5.195,3.845-10.286" transform="translate(-115.603 -919.12)" fill="#5f2567" fill-rule="evenodd"/>
      <path id="Path_482" data-name="Path 482" d="M181.884,1596.114s-1.646,2.427-.621,4.639a1.238,1.238,0,0,0,1.64.454,1.381,1.381,0,0,1-2.423-.439c-.632-1.547.607-3.958,1.4-4.653" transform="translate(-113.221 -931.363)" fill="#5f2567" fill-rule="evenodd"/>
      <path id="Path_483" data-name="Path 483" d="M205.063,1558.559s1.956,4.935-.459,8.792a9.463,9.463,0,0,0,.195-7.478s.017-.139-.206.1c-.176.2-.473.63-.661.205s.948-2.05,1.132-1.618" transform="translate(-128.96 -906.274)" fill="#5f2567" fill-rule="evenodd"/>
      <path id="Path_484" data-name="Path 484" d="M223.857,1554.762s1.966,1.844,1.977,7.1a9.893,9.893,0,0,0-1.871-5.642,4.522,4.522,0,0,0,.236,2.3c.153.16.319-.678.259-1.168.379,1.025.364,1.811.028,1.924s-1.18-1.632-.629-4.515" transform="translate(-142.137 -903.791)" fill="#5f2567" fill-rule="evenodd"/>
      <path id="Path_485" data-name="Path 485" d="M190.321,1591.664a8.468,8.468,0,0,0,.821-.857,4.3,4.3,0,0,1-1.33,3.551,4.13,4.13,0,0,0,.508-2.694" transform="translate(-119.56 -927.825)" fill="#5f2567" fill-rule="evenodd"/>
      <path id="Path_486" data-name="Path 486" d="M185.975,1582.753c.142-.25,1.293-.7,1.768.034.178.353-1.764,3-4.467,3.962a10.121,10.121,0,0,0,3.142-2.9c.483-.74-.745-.59-.443-1.1" transform="translate(-115.201 -922.209)" fill="#5f2567" fill-rule="evenodd"/>
      <path id="Path_529" data-name="Path 529" d="M43.125,0H8.781" transform="translate(7 710.797)" fill="none" stroke="#5f2567" stroke-width="1"/>
      <line id="Line_2" data-name="Line 2" x1="36.17" transform="translate(323.33 711.5)" fill="none" stroke="#5f2567" stroke-miterlimit="10" stroke-width="1"/>
      <path id="Path_487" data-name="Path 487" d="M944.01,1479.287a4.772,4.772,0,0,1,1.382-.039,1.211,1.211,0,0,1,.595.237s.03-.493-.424-.486-1.177.112-1.384.117a2.67,2.67,0,0,1-.667-.182s-.328-.186-.328-.318l-.008-.7.351-.443-.248-.166.491-.007a.259.259,0,0,0,.094-.269c-.062-.15-.285,0-.285,0l-.685-.045a9.47,9.47,0,0,1,1.929-1.738q-.306-.764,1.663-1.715.13-1.785,2.473-2.314a2.827,2.827,0,0,0-2.948,2.208l-.961.62a.934.934,0,0,0-.458,1.072,14.14,14.14,0,0,0-2.026,1.7.619.619,0,0,0-.022.779s.212.415.252.526.065.551.142.606a3.682,3.682,0,0,1,.309.337,1.544,1.544,0,0,0-.362,1.2,1.28,1.28,0,0,0,1.488.563,3.246,3.246,0,0,0,1.436-.512,1.172,1.172,0,0,0-.949,0,1.391,1.391,0,0,1-1.461-.035.761.761,0,0,1-.035-1.1A1.152,1.152,0,0,0,944.01,1479.287Z" transform="translate(-621.367 -848.089)" fill="#5f2567" fill-rule="evenodd"/>
      <path id="Path_488" data-name="Path 488" d="M951.437,1483.864a1.4,1.4,0,0,1,1.21-.4l.108-.25-.952-.177A2.251,2.251,0,0,1,951.437,1483.864Z" transform="translate(-627.381 -855.971)" fill="#5f2567" fill-rule="evenodd"/>
      <path id="Path_489" data-name="Path 489" d="M956.432,1485.05l-1.2,1.213a6.034,6.034,0,0,1,1.162-2.408c-.178-1.359-.593-2.184-1.252-2.468a4.2,4.2,0,0,1,.914,2.629,4.251,4.251,0,0,0-1.306,2.786,6.673,6.673,0,0,0-1.7,5.74,10.355,10.355,0,0,1,1.335-4.577C954.535,1487.678,956.432,1485.05,956.432,1485.05Z" transform="translate(-628.397 -854.867)" fill="#5f2567" fill-rule="evenodd"/>
      <path id="Path_490" data-name="Path 490" d="M956.6,1473.418l.776-.391q.809-1.426,3.187-1.413Q957.541,1471.284,956.6,1473.418Z" transform="translate(-630.827 -848.322)" fill="#5f2567" fill-rule="evenodd"/>
      <path id="Path_491" data-name="Path 491" d="M964.863,1472.875a6.345,6.345,0,0,1,4.635,2.759A4.205,4.205,0,0,0,964.863,1472.875Z" transform="translate(-636.333 -849.167)" fill="#5f2567" fill-rule="evenodd"/>
      <path id="Path_492" data-name="Path 492" d="M965.018,1477.261q.453-2.144-.7-2.36a1.491,1.491,0,0,1,.316,1.95Z" transform="translate(-635.969 -850.543)" fill="#5f2567" fill-rule="evenodd"/>
      <path id="Path_493" data-name="Path 493" d="M961.693,1475.475c-.472-.041-.71.382-.72,1.262l.527-.253.025.586c.2.114.37.043.511-.214Q962.352,1475.816,961.693,1475.475Z" transform="translate(-633.739 -850.924)" fill="#5f2567" fill-rule="evenodd"/>
      <path id="Path_494" data-name="Path 494" d="M969.843,1476.417a3.5,3.5,0,0,1,.3.694s.755-.089,1.619,1.015A2.545,2.545,0,0,0,969.843,1476.417Z" transform="translate(-639.653 -851.554)" fill="#5f2567" fill-rule="evenodd"/>
      <path id="Path_495" data-name="Path 495" d="M971.382,1479.38l.271.773c.063-.051.5-.141,1,.387A2.028,2.028,0,0,0,971.382,1479.38Z" transform="translate(-640.679 -853.53)" fill="#5f2567" fill-rule="evenodd"/>
      <path id="Path_496" data-name="Path 496" d="M969.12,1483.121a9.049,9.049,0,0,1-.167-3.26,3.764,3.764,0,0,0-1.465-2.6,4.637,4.637,0,0,1,.887,2.724A5.739,5.739,0,0,0,969.12,1483.121Z" transform="translate(-638.083 -852.119)" fill="#5f2567" fill-rule="evenodd"/>
      <path id="Path_497" data-name="Path 497" d="M973.316,1483.347a4.561,4.561,0,0,1,.1,2.2,3.773,3.773,0,0,0,.389,2.659c.332.642.858,1.041,1.09.295a2.346,2.346,0,0,0-.267-1.913,1.485,1.485,0,0,1-.461,1.875,3.2,3.2,0,0,1-.195-1.735A5.082,5.082,0,0,0,973.316,1483.347Z" transform="translate(-641.969 -856.175)" fill="#5f2567" fill-rule="evenodd"/>
      <path id="Path_498" data-name="Path 498" d="M967.61,1497.9a3.69,3.69,0,0,0,.273.329c.009-.152.017-.341.009-.568-1.254-1.429-.771-3.9-.771-3.9A5.317,5.317,0,0,0,967.61,1497.9Z" transform="translate(-637.69 -863.121)" fill="#5f2567" fill-rule="evenodd"/>
      <path id="Path_499" data-name="Path 499" d="M972.731,1484.321a2.62,2.62,0,0,0,.865,2.517,3.045,3.045,0,0,1,.922,2.209c-.548,2.927-2.126,3.331-3.107,2.788a2.148,2.148,0,0,1-.065.523c.658.419,1.593.509,2.7-.832a4.027,4.027,0,0,0-.386-5.417C972.684,1485.107,972.72,1484.418,972.731,1484.321Z" transform="translate(-640.655 -856.824)" fill="#5f2567" fill-rule="evenodd"/>
      <path id="Path_500" data-name="Path 500" d="M971.628,1500.107a1.266,1.266,0,0,0,.191-1.4,3.941,3.941,0,0,1-.206-1.556s-.229.195-.1.951.154,1.733-.513,1.593C971,1499.7,971.268,1500.391,971.628,1500.107Z" transform="translate(-640.423 -865.38)" fill="#5f2567" fill-rule="evenodd"/>
      <path id="Path_501" data-name="Path 501" d="M969.438,1502.933a3.263,3.263,0,0,1-.189-1.492s-.2.259-.188,1.269-.057,1.344-.536,1.034c0,0,.1.831.461.661S969.533,1503.438,969.438,1502.933Z" transform="translate(-638.775 -868.239)" fill="#5f2567" fill-rule="evenodd"/>
      <path id="Path_502" data-name="Path 502" d="M964.654,1505.27a6.2,6.2,0,0,0-.146,1.173,1.4,1.4,0,0,1-.82,1.386c-.517.131-.668-.316-.593-.621,0,0-.326,1.147.652,1.231.745.06,1.163-.891,1.051-1.715A8.929,8.929,0,0,1,964.654,1505.27Z" transform="translate(-635.119 -870.792)" fill="#5f2567" fill-rule="evenodd"/>
      <path id="Path_503" data-name="Path 503" d="M957.982,1495.621s.465,3.527-1.136,5.011c-.753.7-1.783.509-1.448-1.41l-.01.039a2.924,2.924,0,0,0-.622,2.679.781.781,0,0,0,1.385.159.7.7,0,0,1-.943-.2,2.978,2.978,0,0,1,.181-2.641c-.075.308-.547,2.432.8,2.31C957.638,1501.439,958.584,1498.47,957.982,1495.621Z" transform="translate(-629.509 -864.359)" fill="#5f2567" fill-rule="evenodd"/>
      <path id="Path_504" data-name="Path 504" d="M966.965,1484.517c-.12-.237-.7.72-.58.955s.274-.02.366-.14c.117-.142.113-.063.113-.063a5.359,5.359,0,0,1,.163,4.231C968.251,1487.233,966.965,1484.517,966.965,1484.517Z" transform="translate(-637.337 -856.93)" fill="#5f2567" fill-rule="evenodd"/>
      <path id="Path_505" data-name="Path 505" d="M977.443,1481.75c-.206,1.649.331,2.6.521,2.527s.166-.521-.086-1.086c.052.274-.011.754-.1.669a2.557,2.557,0,0,1-.217-1.29,5.488,5.488,0,0,1,1.254,3.027C978.594,1482.7,977.443,1481.75,977.443,1481.75Z" transform="translate(-644.69 -855.11)" fill="#5f2567" fill-rule="evenodd"/>
      <path id="Path_506" data-name="Path 506" d="M981.64,1493.3c0,.031.006.06.008.092C981.648,1493.389,981.646,1493.356,981.64,1493.3Z" transform="translate(-647.519 -862.809)" fill="#5f2567" fill-rule="evenodd"/>
      <path id="Path_507" data-name="Path 507" d="M960.424,1503.222a4.808,4.808,0,0,1-.433.514,2.339,2.339,0,0,1-.189,1.541A2.435,2.435,0,0,0,960.424,1503.222Z" transform="translate(-632.959 -869.427)" fill="#5f2567" fill-rule="evenodd"/>
      <path id="Path_508" data-name="Path 508" d="M958.271,1498.642c-.3-.4-.929-.1-1,.045-.152.3.536.169.29.6a5.729,5.729,0,0,1-1.669,1.752C957.384,1500.4,958.384,1498.835,958.271,1498.642Z" transform="translate(-630.351 -866.24)" fill="#5f2567" fill-rule="evenodd"/>
      <path id="Path_509" data-name="Path 509" d="M961.1,1521.709a.208.208,0,0,1-.073-.061.244.244,0,0,1-.031-.079.769.769,0,0,1-.01-.152v-.359c.041.045.148.146.33.314a1.358,1.358,0,0,0,.349.242.482.482,0,0,0,.2.049.34.34,0,0,0,.256-.113.387.387,0,0,0,.105-.276.354.354,0,0,0-.1-.261.446.446,0,0,0-.286-.128v.033a.387.387,0,0,1,.175.122.318.318,0,0,1,.056.182.254.254,0,0,1-.082.189.3.3,0,0,1-.214.082.681.681,0,0,1-.376-.146,3.541,3.541,0,0,1-.53-.5h-.039v.809l.265.095Z" transform="translate(-633.648 -881.176)" fill="#5f2567" fill-rule="evenodd"/>
      <path id="Path_510" data-name="Path 510" d="M960.559,1524.932a1.106,1.106,0,0,0,.4.066.86.86,0,0,0,.542-.154.365.365,0,0,0,.162-.283.34.34,0,0,0-.066-.188.584.584,0,0,0-.253-.188,1.046,1.046,0,0,0-.4-.073.954.954,0,0,0-.473.115.374.374,0,0,0-.23.323.348.348,0,0,0,.078.206A.514.514,0,0,0,960.559,1524.932Zm-.1-.552a1.275,1.275,0,0,1,.46-.07,2.2,2.2,0,0,1,.352.027.524.524,0,0,1,.265.1.161.161,0,0,1,.062.124.148.148,0,0,1-.034.1.346.346,0,0,1-.164.095,1.321,1.321,0,0,1-.39.049,1.956,1.956,0,0,1-.489-.047.29.29,0,0,1-.164-.09.167.167,0,0,1-.05-.111C960.306,1524.475,960.357,1524.42,960.459,1524.381Z" transform="translate(-633.252 -883.355)" fill="#5f2567" fill-rule="evenodd"/>
      <path id="Path_511" data-name="Path 511" d="M960.136,1528.054a.069.069,0,0,1,.045-.04.556.556,0,0,1,.141-.01h1.157v-.032l-.162-.334-.034.018a.226.226,0,0,1,.034.1.085.085,0,0,1-.016.045.077.077,0,0,1-.047.026,1.179,1.179,0,0,1-.192.009h-.741a.536.536,0,0,1-.149-.01.09.09,0,0,1-.038-.038.294.294,0,0,1-.015-.125h-.039v.514h.039A.3.3,0,0,1,960.136,1528.054Z" transform="translate(-633.146 -885.706)" fill="#5f2567" fill-rule="evenodd"/>
      <path id="Path_512" data-name="Path 512" d="M959.72,1530.84h.146v-.184h.889v-.113l-.905-.633h-.13v.58h-.362v.166h.362Zm.146-.83.675.48h-.675Z" transform="translate(-632.662 -887.222)" fill="#5f2567" fill-rule="evenodd"/>
      <path id="Path_513" data-name="Path 513" d="M932.975,1471.554a1.011,1.011,0,0,0-.195-.2.6.6,0,0,0-.424-.109.847.847,0,0,0-.478.229,2.167,2.167,0,0,0,.047-.291.584.584,0,0,0-.048-.239.5.5,0,0,0-.149-.174.6.6,0,0,0-.191-.094.533.533,0,0,0-.211-.016.652.652,0,0,0-.21.068,1.164,1.164,0,0,0-.151.094,1.185,1.185,0,0,0-.232.241l-.076.105c-.036.045-.055.075-.065.087a.168.168,0,0,0-.028.04l-.044.065-.373.545-.257.372.119.084.138-.148a.256.256,0,0,1,.089-.083.04.04,0,0,1,.03-.005,1,1,0,0,1,.163.094c.308.214.5.347.569.4l.7.5a3.034,3.034,0,0,1,.26.211.334.334,0,0,1,.052.081.771.771,0,0,1-.083.2c-.019.041-.037.078-.05.108l.128.1c.143-.212.232-.345.261-.39.11-.17.2-.315.291-.432l.207-.272a2.222,2.222,0,0,0,.186-.292,1.647,1.647,0,0,0,.125-.346.868.868,0,0,0-.01-.308A.556.556,0,0,0,932.975,1471.554Zm-1.662.6c-.051-.036-.085-.06-.111-.077l-.137-.1c-.163-.122-.3-.211-.393-.274-.046-.034-.082-.056-.107-.076a2.18,2.18,0,0,1,.113-.2.66.66,0,0,1,.366-.282.417.417,0,0,1,.347.072.443.443,0,0,1,.222.352.811.811,0,0,1-.181.438A1.168,1.168,0,0,1,931.313,1472.154Zm1.41.227a.844.844,0,0,1-.165.343.6.6,0,0,1-.186.167.189.189,0,0,1-.075-.029l-.378-.267-.242-.18-.2-.146a.579.579,0,0,1,.089-.153,1.277,1.277,0,0,1,.295-.315.511.511,0,0,1,.319-.071.576.576,0,0,1,.3.124.657.657,0,0,1,.215.239A.431.431,0,0,1,932.723,1472.381Z" transform="translate(-613.014 -847.711)" fill="#5f2567" fill-rule="evenodd"/>
      <path id="Path_514" data-name="Path 514" d="M946.135,1459.887l-.185-.367c-.043-.092-.086-.179-.128-.265a.415.415,0,0,1-.037-.075c-.01-.023-.029-.059-.046-.1-.033-.075-.061-.127-.077-.157a.647.647,0,0,1-.05-.095.087.087,0,0,1-.006-.078.605.605,0,0,1,.126-.087.74.74,0,0,0,.135-.086.126.126,0,0,0-.016-.052.281.281,0,0,0-.047-.079l-.033.009a3.131,3.131,0,0,1-.336.168l-.358.141-.146.063.059.145.027-.007.17-.08a.231.231,0,0,1,.163,0c.032.012.065.056.1.128l.052.091c.2.36.365.685.493.984a1.594,1.594,0,0,1,.136.394.858.858,0,0,1-.01.231.373.373,0,0,1-.064.155.6.6,0,0,1-.131.161,1.447,1.447,0,0,1-.311.192.732.732,0,0,1-.338.058.465.465,0,0,1-.235-.079.778.778,0,0,1-.239-.295l-.228-.45-.136-.324-.075-.143-.072-.174-.033-.067c-.012-.023-.027-.054-.045-.093a.723.723,0,0,1-.078-.23.2.2,0,0,1,.122-.1,1.478,1.478,0,0,0,.206-.109l0-.014-.052-.107-.012-.024a1.3,1.3,0,0,1-.144.069c-.073.033-.154.074-.246.121s-.19.09-.287.132c-.029.013-.127.053-.292.115l-.2.081c-.022.013-.044.022-.069.035l.072.143a.334.334,0,0,0,.077-.031c.145-.057.239-.072.282-.046a1.2,1.2,0,0,1,.19.34l.389.879a2.745,2.745,0,0,0,.2.381.794.794,0,0,0,.289.26.778.778,0,0,0,.4.062,1.462,1.462,0,0,0,.525-.141,1.645,1.645,0,0,0,.413-.252,1.021,1.021,0,0,0,.25-.285.772.772,0,0,0,.1-.292.669.669,0,0,0-.016-.232A3.68,3.68,0,0,0,946.135,1459.887Z" transform="translate(-621.865 -839.57)" fill="#5f2567" fill-rule="evenodd"/>
      <path id="Path_515" data-name="Path 515" d="M929.884,1503.961l-.124.074a1.465,1.465,0,0,0,.066.289.466.466,0,0,1,.021.08c-.057.029-.1.051-.143.076l-.208.114-.251.142c-.156.091-.258.153-.313.18l-.227.12-.167.1-.223.125c-.006.005-.037.023-.087.052l-.044.026a.455.455,0,0,1-.059.024l-.026.012-.04.026-.035.016-.038.009a.7.7,0,0,1-.1-.076c-.025-.026-.081-.089-.164-.185a1.093,1.093,0,0,0-.128.062c.023.051.042.09.06.124a.7.7,0,0,0,.086.123.27.27,0,0,1,.036.057l.136.225c.009.016.021.035.034.062a2.485,2.485,0,0,1,.163.343l.094.169a.149.149,0,0,0,.027.046.4.4,0,0,0,.108-.042.647.647,0,0,0-.016-.073,1.3,1.3,0,0,1-.055-.283.06.06,0,0,1,.012-.039l.111-.086.3-.175.081-.039c.158-.085.257-.137.3-.157a.773.773,0,0,1,.083.12l.18.3.173.32.072.127.144.266c.008.022.021.054.032.089-.063.036-.1.061-.121.073a.682.682,0,0,1-.062.03l-.056.028c-.013.006-.027.017-.048.03l-.224.124a.047.047,0,0,0-.031.02l-.013.006-.062.033-.076.04-.031.017-.061.04a.06.06,0,0,1-.071-.008l-.222-.289c-.032.013-.057.025-.079.032a.271.271,0,0,1-.052.033,1.228,1.228,0,0,0,.057.113.4.4,0,0,0,.052.076c.1.144.154.236.174.275a.737.737,0,0,1,.045.088c.019.034.032.066.053.1.036.071.09.182.153.335.01.014.026.046.05.087s.047.074.062.094a.157.157,0,0,0,.063-.023.269.269,0,0,0,.065-.039.453.453,0,0,0-.028-.079l-.007-.032a1.327,1.327,0,0,1-.064-.16c-.007-.01-.01-.025-.017-.035s-.008-.024-.009-.036a.238.238,0,0,1,.037-.039,2.14,2.14,0,0,1,.231-.145l.076-.044.151-.091.153-.074.044-.032c.2-.107.317-.175.367-.2l.044-.022c.081-.042.2-.112.352-.2l.453-.224c.036.033.064.06.086.083l.161.2a1.131,1.131,0,0,0,.132-.06c-.089-.156-.156-.267-.2-.334-.005-.007-.022-.034-.053-.082l-.023-.039c-.058-.1-.1-.189-.128-.251l-.131-.254a.258.258,0,0,0-.013-.033c-.013-.02-.023-.047-.039-.073s-.037-.064-.061-.109l-.068.028c-.008.007-.026.018-.048.038-.006.014,0,.03,0,.05s0,.017.01.033l.1.287,0,.021c-.029.02-.061.039-.09.057l-.547.3a.474.474,0,0,0-.059.038l-.023.011-.136.065a.269.269,0,0,1-.056-.067l-.025-.05c-.015-.021-.029-.049-.047-.078a.149.149,0,0,0-.017-.027l0-.011-.006-.019-.449-.824a1.292,1.292,0,0,1-.068-.143,1.883,1.883,0,0,0,.214-.14l.155-.074a5.277,5.277,0,0,1,.484-.245c.021.019.034.035.047.045l.1.127.105.118a.542.542,0,0,0,.127-.05.2.2,0,0,0-.023-.067,3.665,3.665,0,0,1-.228-.362,4.648,4.648,0,0,1-.243-.473,2.06,2.06,0,0,0-.1-.2C929.926,1504.035,929.909,1504.008,929.884,1503.961Z" transform="translate(-611.483 -869.919)" fill="#5f2567" fill-rule="evenodd"/>
      <path id="Path_516" data-name="Path 516" d="M993.343,1492.661a.777.777,0,0,1-.052.268.4.4,0,0,1-.067.013l-.086,0-.23,0-.106-.007h-.271c-.008,0-.143-.009-.411-.022h-.11l-.461-.014h-.238a.35.35,0,0,1-.172-.039.8.8,0,0,1-.064-.2c-.014-.063-.024-.106-.032-.135l-.148,0c0,.028.007.085.012.174.013.137.016.241.016.312l-.011.358c-.019.161-.029.251-.03.269s-.009.044-.009.051,0,.032,0,.077v.038c.031,0,.053.007.068.007s.063,0,.1-.007a1.221,1.221,0,0,0,.019-.125,2.09,2.09,0,0,1,.041-.225l.045,0h.078l.405.006.269.009.535.006c.122,0,.3.007.525.017a1.059,1.059,0,0,1,.139,0,.646.646,0,0,1,.153.013,1.527,1.527,0,0,1,.052.172.975.975,0,0,0,.049.185c.034,0,.063.007.086.007h.065c0-.026,0-.091-.007-.186-.01-.178-.01-.3-.01-.381,0-.018,0-.061.008-.134l.032-.576h-.177A.349.349,0,0,0,993.343,1492.661Z" transform="translate(-653.675 -862.298)" fill="#5f2567" fill-rule="evenodd"/>
      <path id="Path_517" data-name="Path 517" d="M929.762,1479.435c-.035.061-.057.1-.064.107a1.124,1.124,0,0,1-.118.2.1.1,0,0,1-.043-.012l-.071-.028-.377-.152-.248-.1-.5-.2c-.115-.046-.276-.113-.485-.2a1.336,1.336,0,0,1-.134-.047.78.78,0,0,1-.135-.07.956.956,0,0,1,.018-.178c.009-.07.016-.133.019-.191-.032-.015-.062-.027-.081-.039l-.059-.019c-.009.025-.027.082-.058.173-.055.168-.1.29-.128.362-.007.016-.026.058-.056.123l-.236.526.164.062c.009-.015.019-.039.03-.062a.874.874,0,0,1,.148-.234.566.566,0,0,1,.067.012l.081.028.217.081.1.044.248.1.379.165.1.039.425.175.221.09a.324.324,0,0,1,.144.1.77.77,0,0,1-.009.209c-.01.064-.015.111-.02.138l.139.055c.007-.024.025-.081.05-.167.04-.13.073-.23.1-.3l.141-.33c.073-.143.115-.222.125-.239a.24.24,0,0,0,.025-.047.531.531,0,0,1,.024-.069.147.147,0,0,1,.015-.04.318.318,0,0,0-.065-.026A.45.45,0,0,0,929.762,1479.435Z" transform="translate(-611.094 -852.943)" fill="#5f2567" fill-rule="evenodd"/>
      <path id="Path_518" data-name="Path 518" d="M987.461,1475.3l-.22.1-.4.2c-.1.049-.159.076-.176.083s-.031.006-.06.012a.942.942,0,0,1-.12-.148.387.387,0,0,0-.107-.12.271.271,0,0,0-.057.021.466.466,0,0,0-.061.034l.046.078a2.009,2.009,0,0,0,.109.2l.142.243c.007.013.018.036.035.068.023.047.084.207.189.478l.039.075c0,.007.009.02.021.044a.961.961,0,0,0,.141-.058,1.727,1.727,0,0,0-.053-.278.491.491,0,0,1-.018-.156l.349-.153.4-.206a1.077,1.077,0,0,1,.127-.055c.029.055.051.1.065.122a.392.392,0,0,1,.053.2.877.877,0,0,1-.139.226c-.193.255-.336.436-.427.546-.034.043-.086.112-.149.207l-.09.115a.78.78,0,0,0,.045.078c.042.07.065.11.071.122l.089.184c.027.056.048.106.065.148l.034.072.033.1.023.036.02.048a.157.157,0,0,0,.044-.019.191.191,0,0,0,.048-.036.621.621,0,0,0,0-.155.616.616,0,0,1,0-.172,1.814,1.814,0,0,1,.148-.249l.33-.519c.034-.053.077-.126.122-.211.024-.041.045-.074.065-.1a.767.767,0,0,0,.4.251.582.582,0,0,0,.387-.043.629.629,0,0,0,.33-.431.965.965,0,0,0-.1-.684,4.91,4.91,0,0,0-.24-.439l-.122-.22-.05-.094c-.005-.007-.023-.057-.062-.147s-.07-.14-.084-.165a1.043,1.043,0,0,0-.095-.163l-.023,0-.107.055c.011.036.039.1.078.206l.029.116c-.068.038-.227.12-.478.243-.116.056-.237.114-.37.175l-.1.043Zm.538.346c.091-.04.162-.075.218-.1l.2-.1.154-.067.24-.122.034-.012a.686.686,0,0,1,.081.138,1.033,1.033,0,0,1,.1.269.542.542,0,0,1-.023.229.43.43,0,0,1-.115.152.739.739,0,0,1-.195.134.4.4,0,0,1-.359.016.736.736,0,0,1-.325-.385c-.013-.028-.033-.068-.056-.129Z" transform="translate(-650.599 -850.193)" fill="#5f2567" fill-rule="evenodd"/>
      <path id="Path_519" data-name="Path 519" d="M928.006,1496.958a.358.358,0,0,1,.128.066.588.588,0,0,1,.08.178c.024.06.042.1.053.126l.14-.018-.009-.038a1.719,1.719,0,0,0-.068-.275l-.029-.078c-.027-.318-.048-.515-.059-.6a.242.242,0,0,0-.048,0l-.1.018v.145a.37.37,0,0,1-.024.184.092.092,0,0,1-.071.04.428.428,0,0,1-.147-.017c-.261-.048-.427-.08-.5-.1l-.118-.759.368-.22.181-.111a.155.155,0,0,1,.054-.018.065.065,0,0,1,.047.012.356.356,0,0,1,.056.109l.085.214a.794.794,0,0,0,.134-.014l-.019-.1-.07-.336c-.011-.047-.026-.123-.042-.226s-.027-.2-.037-.323-.02-.229-.035-.326a.332.332,0,0,0-.047.005l-.1.025a.816.816,0,0,0-.015.184.268.268,0,0,1-.023.125.362.362,0,0,1-.089.076,2.34,2.34,0,0,1-.24.146c-.119.069-.2.119-.261.154-.1.063-.225.139-.378.226s-.313.186-.473.291l-.766.476-.034.023.011.091c.009.04.015.082.024.127l1.315.276Zm-1.353-.788c.149-.088.276-.162.392-.219l.008.049c.009.057.037.238.082.551l-.818-.167C926.4,1496.33,926.507,1496.259,926.653,1496.17Z" transform="translate(-610.112 -863.61)" fill="#5f2567" fill-rule="evenodd"/>
      <path id="Path_520" data-name="Path 520" d="M991.9,1498.95a.475.475,0,0,0-.1.1c0,.018.011.044.04.089a1.241,1.241,0,0,1,.2.321.608.608,0,0,1-.031.254,3.566,3.566,0,0,1-.117.392.031.031,0,0,1-.016.023.034.034,0,0,1-.03.006,3.066,3.066,0,0,1-.371-.087l-.741-.19c-.342-.09-.587-.16-.744-.211a.289.289,0,0,1-.092-.05,1.942,1.942,0,0,1-.012-.306.289.289,0,0,0-.037-.183l-.018,0-.045-.011-.046-.01c-.006.024-.018.071-.031.147-.036.194-.06.313-.068.352-.067.245-.115.416-.151.506a3.052,3.052,0,0,0-.107.339.574.574,0,0,1-.018.072c.023.009.038.016.05.019a.82.82,0,0,0,.086.01.728.728,0,0,0,.06-.095.809.809,0,0,0,.068-.136.7.7,0,0,1,.058-.108.551.551,0,0,1,.21.03l.255.068.62.161.571.154.266.071a.677.677,0,0,1,.121.041,1.338,1.338,0,0,1-.03.14,3.784,3.784,0,0,1-.12.408.115.115,0,0,1-.047.048,1.115,1.115,0,0,1-.18.032,1.225,1.225,0,0,0-.248.055.73.73,0,0,0-.009.146.686.686,0,0,0,.089.033l.1.027.172.048q.277.068.407.1c.008-.025.013-.044.018-.057l.023-.086a.412.412,0,0,0-.048-.034.382.382,0,0,1-.079-.078l.015-.121.161-.6.118-.44.065-.239.007-.037.073-.27c.041-.16.067-.248.073-.265a.906.906,0,0,1,.149-.05.136.136,0,0,0,.039-.011l.032-.12c-.024-.016-.071-.044-.138-.084A4.013,4.013,0,0,1,991.9,1498.95Z" transform="translate(-652.664 -866.578)" fill="#5f2567" fill-rule="evenodd"/>
      <path id="Path_521" data-name="Path 521" d="M988.444,1508.625a.162.162,0,0,0-.031-.011c-.08.081-.123.122-.136.132a.263.263,0,0,1-.076.037l-.207.015-.351-.006-.721,0a.8.8,0,0,0-.12.008.489.489,0,0,1-.318-.047l-.039-.024-.111-.07c-.067-.038-.181-.118-.355-.228l-.1-.064c0-.015.006-.031.011-.05l.139-.354-.053-.035a.278.278,0,0,0-.054-.031l-.076.115a.874.874,0,0,0-.073.133.308.308,0,0,1-.042.081l-.089.141-.122.191-.085.122-.133.171-.133.193a.506.506,0,0,0,.047.032.206.206,0,0,0,.039.029.039.039,0,0,0,.042.007.729.729,0,0,0,.145-.163c.047-.05.073-.083.09-.1a.126.126,0,0,1,.03-.006l.438.276a.688.688,0,0,1,.087.062l.046.029.146.1.052.035a.217.217,0,0,1,.042.065c.041.077.108.245.2.494l.186.437a1.376,1.376,0,0,1,.146.387.625.625,0,0,1-.065.235l-.007.026.125.082a.3.3,0,0,1,.028-.05c.036-.062.06-.111.079-.152l.018-.028.053-.083a.174.174,0,0,1,.032-.037l.243-.337a1.354,1.354,0,0,0-.131-.069c-.011.01-.026.027-.044.047a.586.586,0,0,1-.055.058.365.365,0,0,1-.054.069.17.17,0,0,1-.044.028.111.111,0,0,1-.089-.091l-.161-.311-.006-.016c-.082-.184-.138-.33-.177-.438l-.133-.334a.867.867,0,0,1,.122,0h.081c.019,0,.042,0,.065,0a.391.391,0,0,1,.042,0c.13,0,.2.007.22,0l.213,0a2.941,2.941,0,0,1,.53.007l.022.018v.014l-.057.126-.034.083a.438.438,0,0,0-.036.108l.084.057a.166.166,0,0,0,.04.013l.009-.013a.185.185,0,0,0,.012-.028,2.475,2.475,0,0,1,.155-.276c.056-.084.129-.191.233-.326a1.444,1.444,0,0,1,.1-.13l.009-.021a.644.644,0,0,1,.042-.054l.015-.015a1.016,1.016,0,0,0,.124-.22.5.5,0,0,1-.045-.034C988.461,1508.635,988.449,1508.628,988.444,1508.625Z" transform="translate(-649.872 -872.546)" fill="#5f2567" fill-rule="evenodd"/>
      <path id="Path_522" data-name="Path 522" d="M991.708,1485.144a.712.712,0,0,0-.228.277,2.156,2.156,0,0,0-.131.551,1.8,1.8,0,0,1-.118.489.39.39,0,0,1-.246.189.406.406,0,0,1-.239-.037.424.424,0,0,1-.188-.177.733.733,0,0,1-.1-.229.61.61,0,0,1,0-.23.471.471,0,0,1,.062-.2.8.8,0,0,1,.136-.167,2.573,2.573,0,0,1,.245-.175l-.039-.182-.076.014-.181.038c-.164.039-.253.059-.271.06l-.021.006c-.018.008-.031.016-.032.026a.421.421,0,0,0-.026.135l-.025.253a1.869,1.869,0,0,0,.025.34,1.232,1.232,0,0,0,.1.337,1,1,0,0,0,.167.237,1.293,1.293,0,0,0,.177.159.561.561,0,0,0,.2.086,1.03,1.03,0,0,0,.381,0,.837.837,0,0,0,.275-.1.806.806,0,0,0,.206-.207.854.854,0,0,0,.121-.3,1.85,1.85,0,0,0,.054-.315,1.171,1.171,0,0,1,.132-.517.372.372,0,0,1,.225-.161.332.332,0,0,1,.272.064.466.466,0,0,1,.166.29.484.484,0,0,1-.094.387,1.057,1.057,0,0,1-.319.243v.023l.021.146.008.019a.393.393,0,0,0,.077,0,2.988,2.988,0,0,0,.316-.086c.087-.031.154-.055.2-.076a2.561,2.561,0,0,0,.025-.318,1.556,1.556,0,0,0-.022-.289.928.928,0,0,0-.351-.625.738.738,0,0,0-.576-.121A.824.824,0,0,0,991.708,1485.144Z" transform="translate(-653.247 -857.267)" fill="#5f2567" fill-rule="evenodd"/>
      <path id="Path_523" data-name="Path 523" d="M982.234,1465.879c-.145-.139-.231-.225-.264-.261a2.549,2.549,0,0,1-.243-.281c-.031-.047-.077-.1-.126-.158l-.122.108c.023.025.037.05.058.07a1.255,1.255,0,0,1,.133.179c.012.019.026.039.032.051a.1.1,0,0,1,.021.064.281.281,0,0,0-.025.032l-.169.184-.165.158-.224.232-.167.156-.544.532-.042.042c-.042.04-.07.069-.084.084a.428.428,0,0,1-.122.087,1.183,1.183,0,0,1-.247-.164,1.189,1.189,0,0,0-.125-.095l-.1.1.177.169.058.06c.176.161.316.3.43.415.224.232.415.434.566.607.218.245.356.393.406.449l.15.145.191-.134.324-.213.056-.032a.579.579,0,0,1,.068-.054.549.549,0,0,0-.049-.047.508.508,0,0,0-.076-.071,1.02,1.02,0,0,1-.428.1.489.489,0,0,1-.265-.081,2.421,2.421,0,0,1-.362-.315,1.66,1.66,0,0,1-.323-.395.112.112,0,0,1,.036-.116l.313-.3c.08-.075.175-.166.288-.278a.447.447,0,0,1,.05-.047,4.523,4.523,0,0,1,.332.316,1.713,1.713,0,0,1,.2.226.142.142,0,0,1,.016.1.813.813,0,0,1-.12.216c-.038.053-.061.091-.073.111l.1.105.031-.029c.029-.029.073-.071.122-.128s.1-.1.123-.126.043-.04.071-.065.1-.091.2-.188c.044-.043.11-.107.192-.2l-.082-.083-.022-.02a2.028,2.028,0,0,1-.261.156.2.2,0,0,1-.106.015.462.462,0,0,1-.161-.11c-.075-.067-.2-.186-.365-.358-.017-.018-.035-.041-.056-.068l.181-.175.246-.232c.165-.161.261-.252.284-.278.092.091.2.194.31.312.1.1.191.2.271.3.046.057.072.088.08.1a.515.515,0,0,1,.079.1.941.941,0,0,1-.044.222l-.047.161c-.022.053-.04.092-.051.12.02.027.037.043.043.053l.061.057a.283.283,0,0,0,.028-.024l.058-.06.3-.292a.14.14,0,0,0,.048-.1,2.109,2.109,0,0,0-.228-.282l-.257-.261C982.645,1466.276,982.453,1466.088,982.234,1465.879Z" transform="translate(-646.231 -844.061)" fill="#5f2567" fill-rule="evenodd"/>
      <path id="Path_524" data-name="Path 524" d="M958.608,1456.938l-.437.029-.4.025-.048.009v.119a.616.616,0,0,0,.165.041.376.376,0,0,1,.2.061c.019.017.03.07.033.157,0,.029.015.129.035.3a2.711,2.711,0,0,1,.023.3c.009.111.016.207.025.287s.018.19.026.327l.016.234,0,.05c-.85-.788-1.342-1.245-1.478-1.378s-.311-.29-.525-.471c-.026,0-.049,0-.063,0l-.125.01c-.072.006-.112.007-.123.009a.307.307,0,0,1-.046,0c-.081,0-.123,0-.143,0s-.089,0-.168.012l-.057,0-.175.007.015.141a1.462,1.462,0,0,1,.275.049.453.453,0,0,1,.16.1.181.181,0,0,1,.049.08,1.089,1.089,0,0,1,.041.323l.023.41.019.654,0,.114c0,.045.005.176,0,.391,0,.072-.006.119-.029.136a.45.45,0,0,1-.2.033c-.047,0-.07,0-.079,0a.577.577,0,0,0-.094.011v.075c0,.024.006.05.006.082a.334.334,0,0,0,.07.006l.116-.011c.072-.007.214-.018.429-.029.229.015.368.022.409.018l.08-.005-.015-.169a.354.354,0,0,0-.054-.012,1.616,1.616,0,0,1-.344-.031c-.012-.027-.021-.048-.027-.06a.558.558,0,0,1-.01-.075c-.017-.128-.029-.247-.038-.357l-.023-.263,0-.143c0-.049,0-.093,0-.14l-.047-.75.339.286c.14.117.295.254.467.41l.26.251.353.331.506.469.253.241.23-.017-.005-.108c0-.01,0-.043-.011-.1l0-.108-.011-.107-.009-.247a.871.871,0,0,0-.006-.109l-.047-.707c0-.046-.008-.087-.01-.122-.014-.114-.024-.269-.033-.463,0-.09-.007-.145-.007-.17-.006-.05-.009-.077-.009-.085a.125.125,0,0,1,.016-.075,1.149,1.149,0,0,1,.105-.075.889.889,0,0,1,.148-.047.307.307,0,0,0,.092-.04l-.008-.131C958.666,1456.933,958.641,1456.936,958.608,1456.938Z" transform="translate(-629.987 -838.563)" fill="#5f2567" fill-rule="evenodd"/>
      <path id="Path_525" data-name="Path 525" d="M925.292,1487.937c.009-.008.013-.015.022-.016a.534.534,0,0,1,.189.007c.375.044.6.072.7.084l.851.115a2.125,2.125,0,0,1,.326.064.37.37,0,0,1,.086.047,1.039,1.039,0,0,1,.021.216c0,.046,0,.085,0,.117l.161.029c.025-.259.04-.413.045-.471.016-.2.034-.371.056-.516l.056-.339a2.551,2.551,0,0,0,.026-.342,1.458,1.458,0,0,0-.054-.368.726.726,0,0,0-.153-.264.485.485,0,0,0-.181-.151.818.818,0,0,0-.269-.089.59.59,0,0,0-.425.1.825.825,0,0,0-.315.427,1.582,1.582,0,0,0-.1-.276.609.609,0,0,0-.152-.19.492.492,0,0,0-.212-.085.707.707,0,0,0-.214.007.476.476,0,0,0-.192.089.505.505,0,0,0-.155.155.793.793,0,0,0-.09.154,1.334,1.334,0,0,0-.094.326l-.018.127c-.011.057-.013.092-.016.1s0,.033,0,.049l-.01.078-.071.656-.054.449.143.015c.029-.1.047-.168.053-.193A.223.223,0,0,1,925.292,1487.937Zm1.17-.63a1.174,1.174,0,0,1,.112-.419.515.515,0,0,1,.25-.213.636.636,0,0,1,.32-.028.724.724,0,0,1,.3.111.463.463,0,0,1,.161.238.834.834,0,0,1,.016.381.64.64,0,0,1-.088.236.262.262,0,0,1-.077.01l-.461-.058-.3-.047-.245-.033A.435.435,0,0,1,926.462,1487.307Zm-1.11-.193a.67.67,0,0,1,.191-.42.417.417,0,0,1,.342-.1.449.449,0,0,1,.361.207.766.766,0,0,1,.047.471,1.832,1.832,0,0,1-.037.188,1.091,1.091,0,0,0-.132-.016l-.17-.031c-.206-.027-.362-.047-.478-.056-.058-.007-.1-.012-.133-.018C925.344,1487.249,925.349,1487.17,925.353,1487.114Z" transform="translate(-609.791 -857.964)" fill="#5f2567" fill-rule="evenodd"/>
      <path id="Path_526" data-name="Path 526" d="M977.2,1460.692a.262.262,0,0,1,.082-.034,1.889,1.889,0,0,1,.33.032.326.326,0,0,0,.033-.066l.034-.057c-.046-.021-.107-.047-.18-.077a2.217,2.217,0,0,1-.261-.119c-.1-.054-.193-.109-.29-.174s-.157-.1-.177-.112a.838.838,0,0,0-.051.079.227.227,0,0,0-.017.063c.017.014.043.027.067.046a.344.344,0,0,1,.06.045.388.388,0,0,1,.142.14.075.075,0,0,1,.006.078.459.459,0,0,1-.1.119l-.207.2a.776.776,0,0,1-.061.064l-.12.1-.522.474-.241.2c.013-.1.022-.2.029-.312l.044-.568a4.967,4.967,0,0,1,.054-.6l.027-.185a.078.078,0,0,1,.017-.042.07.07,0,0,1,.041-.036.275.275,0,0,1,.149.006c.021,0,.1.032.222.08.007-.01.029-.061.073-.148l-.128-.07c-.044-.015-.107-.04-.188-.076-.112-.05-.185-.085-.219-.105a5.691,5.691,0,0,1-.565-.331c-.014-.007-.05-.03-.108-.064l-.083.155.071.046a.68.68,0,0,1,.141.113.234.234,0,0,1,.036.1c0,.02,0,.17-.021.446l-.054.594-.067.935c-.031.269-.048.423-.057.467s-.012.086-.018.129a.827.827,0,0,0,.1.053.518.518,0,0,0,.089.045q.09-.076.3-.286l.036-.022c.111-.1.18-.155.2-.17.066-.061.133-.117.19-.166s.117-.1.17-.144l.543-.468A5.129,5.129,0,0,1,977.2,1460.692Z" transform="translate(-643.148 -840.098)" fill="#5f2567" fill-rule="evenodd"/>
      <path id="Path_527" data-name="Path 527" d="M968.328,1457.846l-.13-.036-.552-.164-.038.172a.342.342,0,0,0,.066.023.8.8,0,0,1,.253.114.446.446,0,0,1,0,.065l-.021.086-.047.226-.031.1-.064.261c0,.008-.037.141-.11.4l-.025.1-.113.445-.057.234a.38.38,0,0,1-.077.158.784.784,0,0,1-.211.021c-.06,0-.107,0-.136,0l-.036.141.172.029c.136.021.237.039.308.055l.347.09c.152.052.235.086.253.093a.343.343,0,0,0,.05.018s.034.006.075.015a.221.221,0,0,1,.037.008c.01-.029.015-.05.021-.067a.806.806,0,0,0,.014-.1,1.187,1.187,0,0,1-.113-.049,1.445,1.445,0,0,1-.213-.088.134.134,0,0,1,.007-.045l.018-.076.095-.392.07-.261.128-.519c.028-.12.073-.287.133-.506.005-.038.016-.082.028-.141a.88.88,0,0,1,.047-.145c.047,0,.109-.006.18,0s.136,0,.193-.005c.01-.037.018-.066.025-.088s.01-.037.013-.061c-.026-.006-.085-.016-.181-.033C968.529,1457.889,968.4,1457.865,968.328,1457.846Z" transform="translate(-637.756 -839.038)" fill="#5f2567" fill-rule="evenodd"/>
      <path id="Path_528" data-name="Path 528" d="M948.666,1466.979c0-.03,0-.062,0-.089a13.322,13.322,0,0,0-26.639,0v.07c0,.058,0,.115,0,.175v.195a.644.644,0,0,1,0,.086,13.319,13.319,0,0,0,7.327,11.656,1.3,1.3,0,0,0,.289.887.951.951,0,0,0,.719.28h.045a1.234,1.234,0,0,0,1.1-.819c.459.147,1.077.332,1.841.525,0,.037,0,.069,0,.109,0,.068-.008.144-.013.22,0-.069.009-.139.012-.2,0,.086-.009.178-.016.275,0-.026,0-.048,0-.073,0,.025,0,.047,0,.073h0c-.054.754-.182,1.775-.186,1.812l-.029.391,2.189-1.426,2.207,1.409-.251-.694a3.169,3.169,0,0,1-.29-1.295l.326-.194a13.318,13.318,0,0,0,11.367-12.93.682.682,0,0,0,0-.069c0-.057,0-.114,0-.176v-.039C948.67,1467.079,948.666,1467.029,948.666,1466.979Zm-17.091,11.715c-.029.114-.054.229-.079.343-.007.033-.016.066-.023.1v.01a2.183,2.183,0,0,1-.09.229,1.1,1.1,0,0,1-.981.732c-.926.028-.93-.9-.926-1.024l.032-.006a.722.722,0,0,0,.756-.21,2.329,2.329,0,0,0,.347-.977l-.3.113c-.377.14-.768-.2-.6-.38s.466-.209.722-.385.7-.4.712-.794a1.685,1.685,0,0,1,.238-.773,1.176,1.176,0,0,1,.212-.251.917.917,0,0,1,.387-.219h0a.89.89,0,0,1,.165-.037,1.08,1.08,0,0,1,1.082.453h0a1.008,1.008,0,0,1,.134.413c0,.034.011.065.012.1a1.066,1.066,0,0,0-.463-.048l-.015,0a.8.8,0,0,0-.529.305,2.859,2.859,0,0,0-.275.462c-.039.1-.084.249-.132.413,0,0-.2.644-.371,1.344A.3.3,0,0,0,931.575,1478.694Zm6.458-3.765a6.747,6.747,0,0,1-2.358.39c-.41,0-.737-.029-.929-.045l-.063-.008h-.034a.324.324,0,0,0-.222.086,1.583,1.583,0,0,0-.365.428h0c-.224-.033-.442-.082-.66-.132a1.127,1.127,0,0,0-1.1-.62c-.05,0-.107,0-.16.007a1.023,1.023,0,0,0-.324.086,8.726,8.726,0,1,1,6.124.374,1.065,1.065,0,0,1,.253-.215Zm-3.888,4.892c0-2.086.323-3.558.906-4.148a7.852,7.852,0,0,0,1.9-.088,11.029,11.029,0,0,0-.676,4.219c-.006.679.093.634.313,1.238l-1.3-.856-1.235.813A5.945,5.945,0,0,0,934.145,1479.821Zm-.267-3.687c-.035.081-.067.166-.1.253-.087-.036-.178-.078-.267-.116l-.006-.145c0-.025-.006-.047-.008-.071C933.626,1476.084,933.75,1476.114,933.878,1476.134Zm-.528,3.805h0v0h0c0,.033,0,.068,0,.1,0-.082.006-.16.006-.226C933.352,1479.857,933.351,1479.9,933.35,1479.94Zm-1.733-.859c.024-.11.051-.226.079-.361l.023-.083c.167-.688.366-1.331.369-1.341.05-.173.092-.307.129-.4a2.38,2.38,0,0,1,.259-.432c.012-.016.027-.027.04-.041a9.164,9.164,0,0,0,1.11.506h0a13.075,13.075,0,0,0-.272,2.7C932.64,1479.435,932.06,1479.241,931.617,1479.081Zm5.584,2.947-1.661-1.061-.236-.14-.552.349-1.321.858,0-.025-.01.006c.058-.7.118-1.068.164-1.426.027-.3.046-.593.046-.792,0-.652.026-3.418.958-4.117a.122.122,0,0,1,.1-.035l.251.021c-.571.637-.888,2.1-.888,4.155a6.686,6.686,0,0,1-.1,1.259l-.008.092,1.335-.885,1.486,1.108a5.167,5.167,0,0,1-.415-1.59,10.042,10.042,0,0,1,.685-4.237l-.005,0a5.692,5.692,0,0,0,.925-.253s-1.2.646-1.165,4.466A5.142,5.142,0,0,0,937.2,1482.027Zm.737-6.533a2.351,2.351,0,0,0-.328.475A2.351,2.351,0,0,1,937.938,1475.494Zm-.986,4.639c0,.1.007.2.011.289,0-.032,0-.061,0-.094h0C936.957,1480.266,936.954,1480.2,936.952,1480.133Zm0-.139c0,.02,0,.042,0,.061,0-.021,0-.039,0-.061h0c0-.094,0-.189-.005-.3a12.713,12.713,0,0,1,.113-1.85h0l0-.015,0,.015a12.288,12.288,0,0,0,4.319.359,7.586,7.586,0,0,0,1.086-.241A12.9,12.9,0,0,1,936.948,1479.994Zm6.181-2.5a8.028,8.028,0,0,1-1.075.278,10.931,10.931,0,0,1-2.027.172,12.713,12.713,0,0,1-2.914-.432c-.008.045-.016.09-.024.137.008-.045.015-.093.023-.137h0a5.223,5.223,0,0,1,.5-1.542,9.141,9.141,0,1,0-6.214-.618l-.1.224a1.839,1.839,0,0,0-.282.864c-.008.26-.288.45-.517.6-.05.034-.1.061-.134.091a1.626,1.626,0,0,1-.331.162,1.094,1.094,0,0,0-.42.245.281.281,0,0,0-.042.311.616.616,0,0,0,.556.318.662.662,0,0,0,.231-.043l.08-.033a1.882,1.882,0,0,1-.282.7.456.456,0,0,1-.186.143,12.973,12.973,0,1,1,13.155-1.437Z" transform="translate(-607.767 -836.478)" fill="#5f2567" fill-rule="evenodd"/>
    </g>
    <g id="_001-image-gallery" data-name="001-image-gallery" transform="translate(10.293 10.094)">
      <g id="Group_859" data-name="Group 859" transform="translate(0 2.402)">
        <g id="Group_858" data-name="Group 858" transform="translate(0 3.148)">
          <path id="Path_607" data-name="Path 607" d="M5,17.393a3,3,0,0,1-2.836-2.042l-.028-.092A2.921,2.921,0,0,1,2,14.391V8.932L.059,15.415a1.818,1.818,0,0,0,1.275,2.206l12.38,3.315a1.836,1.836,0,0,0,.461.059,1.785,1.785,0,0,0,1.73-1.309l.721-2.294Z" transform="translate(-0.001 -8.932)" fill="#5d2568"/>
        </g>
        <path id="Path_608" data-name="Path 608" d="M8.6,8.2A1.6,1.6,0,1,0,7,6.6,1.6,1.6,0,0,0,8.6,8.2Z" transform="translate(-1.396 -5)" fill="#5d2568"/>
      </g>
      <path id="Path_609" data-name="Path 609" d="M18.011,2H6A2,2,0,0,0,4,4v8.807a2,2,0,0,0,2,2H18.011a2,2,0,0,0,2-2V4A2,2,0,0,0,18.011,2ZM6,3.6H18.011a.4.4,0,0,1,.4.4V9.685L15.882,6.734a1.434,1.434,0,0,0-1.074-.492,1.4,1.4,0,0,0-1.07.505l-2.973,3.569L9.8,9.35a1.405,1.405,0,0,0-1.986,0L5.6,11.559V4A.4.4,0,0,1,6,3.6Z" transform="translate(-0.798 -2)" fill="#5d2568"/>
    </g>
  </g>
</svg>
